…
dplyr
En este capítulo, aprenderás las cinco funciones clave de dplyr que te permiten resolver la gran mayoría de tus desafíos de manipulación de datos:

Filtrar o elegir las observaciones por sus valores (filter() — del inglés filtrar).
Reordenar las filas (arrange() — del inglés organizar).
Seleccionar las variables por sus nombres (select() — del inglés seleccionar).
Crear nuevas variables con transformaciones de variables existentes (mutate() — del inglés mutar o transformar).
Contraer muchos valores en un solo resumen (summarise() — del inglés resumir).
Todas estas funciones se pueden usar junto con group_by() (del inglés agrupar por), que cambia el alcance de cada función para que actúe ya no sobre todo el conjunto de datos sino de grupo en grupo. 

##Filtrar filas con filter()

```{r}
filter(vuelos, mes == 1, dia == 1)
#> # A tibble: 842 x 19
#>    anio   mes   dia horario_salida salida_programa… atraso_salida
#>   <int> <int> <int>          <int>            <int>         <dbl>
#> 1  2013     1     1            517              515             2
#> 2  2013     1     1            533              529             4
#> 3  2013     1     1            542              540             2
#> 4  2013     1     1            544              545            -1
#> 5  2013     1     1            554              600            -6
#> 6  2013     1     1            554              558            -4
#> # … with 836 more rows, and 13 more variables: horario_llegada <int>,
#> #   llegada_programada <int>, atraso_llegada <dbl>, aerolinea <chr>,
#> #   vuelo <int>, codigo_cola <chr>, origen <chr>, destino <chr>,
#> #   tiempo_vuelo <dbl>, distancia <dbl>, hora <dbl>, minuto <dbl>,
#> #   fecha_hora <dttm>
```
…
El siguiente código sirve para encontrar todos los vuelos que partieron en noviembre o diciembre:
```{r}
filter(vuelos, mes == 11 | mes == 12)
nov_dic <- filter(vuelos, mes %in% c(11, 12))
```

##Reordenar las filas con arrange()

```{r}
arrange(vuelos, anio, mes, dia)
#> # A tibble: 336,776 x 19
#>    anio   mes   dia horario_salida salida_programa… atraso_salida
#>   <int> <int> <int>          <int>            <int>         <dbl>
#> 1  2013     1     1            517              515             2
#> 2  2013     1     1            533              529             4
#> 3  2013     1     1            542              540             2
#> 4  2013     1     1            544              545            -1
#> 5  2013     1     1            554              600            -6
#> 6  2013     1     1            554              558            -4
#> # … with 336,770 more rows, and 13 more variables: horario_llegada <int>,
#> #   llegada_programada <int>, atraso_llegada <dbl>, aerolinea <chr>,
#> #   vuelo <int>, codigo_cola <chr>, origen <chr>, destino <chr>,
#> #   tiempo_vuelo <dbl>, distancia <dbl>, hora <dbl>, minuto <dbl>,
#> #   fecha_hora <dttm>




arrange(vuelos, desc(atraso_salida))
#> # A tibble: 336,776 x 19
#>    anio   mes   dia horario_salida salida_programa… atraso_salida
#>   <int> <int> <int>          <int>            <int>         <dbl>
#> 1  2013     1     9            641              900          1301
#> 2  2013     6    15           1432             1935          1137
#> 3  2013     1    10           1121             1635          1126
#> 4  2013     9    20           1139             1845          1014
#> 5  2013     7    22            845             1600          1005
#> 6  2013     4    10           1100             1900           960
#> # … with 336,770 more rows, and 13 more variables: horario_llegada <int>,
#> #   llegada_programada <int>, atraso_llegada <dbl>, aerolinea <chr>,
#> #   vuelo <int>, codigo_cola <chr>, origen <chr>, destino <chr>,
#> #   tiempo_vuelo <dbl>, distancia <dbl>, hora <dbl>, minuto <dbl>,
#> #   fecha_hora <dttm>
```
…
```{r}
summarise(vuelos, atraso = mean(atraso_salida, na.rm = TRUE))
#> # A tibble: 1 x 1
#>   atraso
#>    <dbl>
#> 1   12.6
```

summarise() no es muy útil a menos que lo enlacemos con group_by().

```{r}
por_dia <- group_by(vuelos, anio, mes, dia)
summarise(por_dia, atraso = mean(atraso_salida, na.rm = TRUE))
#> `summarise()` has grouped output by 'anio', 'mes'. You can override using the `.groups` argument.
#> # A tibble: 365 x 4
#> # Groups:   anio, mes [12]
#>    anio   mes   dia atraso
#>   <int> <int> <int>  <dbl>
#> 1  2013     1     1  11.5 
#> 2  2013     1     2  13.9 
#> 3  2013     1     3  11.0 
#> 4  2013     1     4   8.95
#> 5  2013     1     5   5.73
#> 6  2013     1     6   7.15
#> # … with 359 more rows
```
…
